REGION;DATE;VALUE
1;2019-12-01;65.0
1;2019-12-02;66.0
1;2019-12-03;69.0
1;2019-12-04;69.0
1;2019-12-05;73.0
1;2019-12-06;81.0
1;2019-12-07;72.0
1;2019-12-08;57.0
1;2019-12-09;66.0
1;2019-12-10;73.0
1;2019-12-11;74.0
1;2019-12-12;77.0
1;2019-12-13;85.0
1;2019-12-14;79.0
1;2019-12-15;66.0
1;2019-12-16;71.0
1;2019-12-17;73.0
1;2019-12-18;77.0
1;2019-12-19;82.0
1;2019-12-20;87.0
1;2019-12-21;81.0
1;2019-12-22;66.0
1;2019-12-23;72.0
1;2019-12-24;79.0
1;2019-12-25;85.0
1;2019-12-26;84.0
1;2019-12-27;83.0
1;2019-12-28;86.0
1;2019-12-29;81.0
1;2019-12-30;100.0
1;2019-12-31;92.0
1;2020-01-01;15.0
1;2020-01-02;44.0
1;2020-01-03;51.0
1;2020-01-04;53.0
1;2020-01-05;54.0
1;2020-01-06;59.0
1;2020-01-07;46.0
1;2020-01-08;50.0
1;2020-01-09;56.0
1;2020-01-10;66.0
1;2020-01-11;64.0
1;2020-01-12;52.0
1;2020-01-13;66.0
1;2020-01-14;62.0
1;2020-01-15;72.0
1;2020-01-16;69.0
1;2020-01-17;79.0
1;2020-01-18;68.0
1;2020-01-19;56.0
1;2020-01-20;64.0
1;2020-01-21;66.0
1;2020-01-22;69.0
1;2020-01-23;68.0
1;2020-01-24;81.0
1;2020-01-25;75.0
1;2020-01-26;60.0
1;2020-01-27;68.0
1;2020-01-28;66.0
1;2020-01-29;70.0
1;2020-01-30;71.0
1;2020-01-31;81.0
1;2020-02-01;74.0
1;2020-02-02;59.0
1;2020-02-03;66.0
1;2020-02-04;68.0
1;2020-02-05;69.0
1;2020-02-06;70.0
1;2020-02-07;79.0
1;2020-02-08;69.0
1;2020-02-09;55.0
1;2020-02-10;67.0
1;2020-02-11;68.0
1;2020-02-12;70.0
1;2020-02-13;75.0
1;2020-02-14;93.0
1;2020-02-15;83.0
1;2020-02-16;63.0
1;2020-02-17;70.0
1;2020-02-18;73.0
1;2020-02-19;74.0
1;2020-02-20;79.0
1;2020-02-21;88.0
1;2020-02-22;83.0
1;2020-02-23;62.0
1;2020-02-24;59.0
1;2020-02-25;66.0
1;2020-02-26;71.0
1;2020-02-27;74.0
1;2020-02-28;79.0
1;2020-02-29;77.0
1;2020-03-01;64.0
1;2020-03-02;70.0
1;2020-03-03;72.0
1;2020-03-04;77.0
1;2020-03-05;87.0
1;2020-03-06;90.0
1;2020-03-07;87.0
1;2020-03-08;71.0
1;2020-03-09;56.0
1;2020-03-10;73.0
1;2020-03-11;76.0
1;2020-03-12;75.0
1;2020-03-13;88.0
1;2020-03-14;83.0
1;2020-03-15;67.0
1;2020-03-16;79.0
1;2020-03-17;84.0
1;2020-03-18;76.0
1;2020-03-19;70.0
1;2020-03-20;82.0
1;2020-03-21;71.0
1;2020-03-22;56.0
1;2020-03-23;56.0
1;2020-03-24;62.0
1;2020-03-25;72.0
1;2020-03-26;75.0
1;2020-03-27;85.0
1;2020-03-28;65.0
1;2020-03-29;46.0
1;2020-03-30;48.0
1;2020-03-31;47.0
1;2020-04-01;40.0
1;2020-04-02;42.0
1;2020-04-03;47.0
1;2020-04-04;41.0
1;2020-04-05;39.0
1;2020-04-06;44.0
1;2020-04-07;49.0
1;2020-04-08;49.0
1;2020-04-09;50.0
1;2020-04-10;59.0
1;2020-04-11;45.0
1;2020-04-12;35.0
1;2020-04-13;53.0
1;2020-04-14;55.0
1;2020-04-15;54.0
1;2020-04-16;59.0
1;2020-04-17;67.0
1;2020-04-18;64.0
1;2020-04-19;26.0
1;2020-04-20;39.0
1;2020-04-21;42.0
1;2020-04-22;49.0
1;2020-04-23;47.0
1;2020-04-24;59.0
1;2020-04-25;55.0
1;2020-04-26;43.0
1;2020-04-27;47.0
1;2020-04-28;49.0
1;2020-04-29;55.0
1;2020-04-30;68.0
1;2020-05-01;55.0
1;2020-05-02;47.0
1;2020-05-03;46.0
1;2020-05-04;53.0
1;2020-05-05;51.0
1;2020-05-06;53.0
1;2020-05-07;53.0
1;2020-05-08;67.0
1;2020-05-09;45.0
1;2020-05-10;44.0
1;2020-05-11;51.0
1;2020-05-12;60.0
1;2020-05-13;54.0
1;2020-05-14;64.0
1;2020-05-15;66.0
1;2020-05-16;67.0
1;2020-05-17;51.0
1;2020-05-18;60.0
1;2020-05-19;59.0
1;2020-05-20;64.0
1;2020-05-21;62.0
1;2020-05-22;75.0
1;2020-05-23;53.0
1;2020-05-24;54.0
1;2020-05-25;69.0
1;2020-05-26;62.0
1;2020-05-27;66.0
1;2020-05-28;72.0
1;2020-05-29;82.0
1;2020-05-30;68.0
1;2020-05-31;58.0
1;2020-06-01;68.0
1;2020-06-02;68.0
1;2020-06-03;72.0
1;2020-06-04;75.0
1;2020-06-05;79.0
1;2020-06-06;68.0
1;2020-06-07;62.0
1;2020-06-08;72.0
1;2020-06-09;70.0
1;2020-06-10;74.0
1;2020-06-11;88.0
1;2020-06-12;69.0
1;2020-06-13;53.0
1;2020-06-14;61.0
1;2020-06-15;82.0
1;2020-06-16;76.0
1;2020-06-17;78.0
1;2020-06-18;73.0
1;2020-06-19;85.0
1;2020-06-20;74.0
1;2020-06-21;61.0
1;2020-06-22;71.0
1;2020-06-23;73.0
1;2020-06-24;72.0
1;2020-06-25;75.0
1;2020-06-26;90.0
1;2020-06-27;67.0
1;2020-06-28;63.0
1;2020-06-29;75.0
1;2020-06-30;83.0
1;2020-07-01;78.0
1;2020-07-02;86.0
1;2020-07-03;96.0
1;2020-07-04;80.0
1;2020-07-05;69.0
1;2020-07-06;85.0
1;2020-07-07;88.0
1;2020-07-08;88.0
1;2020-07-09;84.0
1;2020-07-10;89.0
1;2020-07-11;76.0
1;2020-07-12;66.0
1;2020-07-13;78.0
1;2020-07-14;77.0
1;2020-07-15;86.0
1;2020-07-16;85.0
1;2020-07-17;90.0
1;2020-07-18;71.0
1;2020-07-19;66.0
1;2020-07-20;77.0
1;2020-07-21;75.0
1;2020-07-22;80.0
1;2020-07-23;79.0
1;2020-07-24;90.0
1;2020-07-25;74.0
1;2020-07-26;66.0
1;2020-07-27;79.0
1;2020-07-28;79.0
1;2020-07-29;79.0
1;2020-07-30;80.0
1;2020-07-31;89.0
1;2020-08-01;66.0
1;2020-08-02;66.0
1;2020-08-03;76.0
1;2020-08-04;76.0
1;2020-08-05;79.0
1;2020-08-06;82.0
1;2020-08-07;86.0
1;2020-08-08;72.0
1;2020-08-09;60.0
1;2020-08-10;76.0
1;2020-08-11;75.0
1;2020-08-12;76.0
1;2020-08-13;73.0
1;2020-08-14;81.0
1;2020-08-15;78.0
1;2020-08-16;69.0
1;2020-08-17;76.0
1;2020-08-18;77.0
1;2020-08-19;78.0
1;2020-08-20;77.0
1;2020-08-21;88.0
1;2020-08-22;71.0
1;2020-08-23;63.0
1;2020-08-24;81.0
1;2020-08-25;83.0
1;2020-08-26;83.0
1;2020-08-27;84.0
1;2020-08-28;88.0
1;2020-08-29;80.0
1;2020-08-30;72.0
1;2020-08-31;92.0
1;2020-09-01;86.0
1;2020-09-02;82.0
1;2020-09-03;82.0
1;2020-09-04;89.0
1;2020-09-05;74.0
1;2020-09-06;66.0
1;2020-09-07;81.0
1;2020-09-08;77.0
1;2020-09-09;77.0
1;2020-09-10;82.0
1;2020-09-11;92.0
1;2020-09-12;81.0
1;2020-09-13;69.0
1;2020-09-14;80.0
1;2020-09-15;86.0
1;2020-09-16;83.0
1;2020-09-17;86.0
1;2020-09-18;81.0
1;2020-09-19;83.0
1;2020-09-20;66.0
1;2020-09-21;75.0
1;2020-09-22;79.0
1;2020-09-23;82.0
1;2020-09-24;83.0
1;2020-09-25;94.0
1;2020-09-26;82.0
1;2020-09-27;68.0
1;2020-09-28;78.0
1;2020-09-29;81.0
1;2020-09-30;85.0
1;2020-10-01;88.0
1;2020-10-02;93.0
1;2020-10-03;81.0
1;2020-10-04;65.0
1;2020-10-05;78.0
1;2020-10-06;75.0
1;2020-10-07;76.0
1;2020-10-08;79.0
1;2020-10-09;89.0
1;2020-10-10;82.0
1;2020-10-11;66.0
1;2020-10-12;75.0
1;2020-10-13;76.0
1;2020-10-14;78.0
1;2020-10-15;86.0
1;2020-10-16;90.0
1;2020-10-17;78.0
1;2020-10-18;60.0
1;2020-10-19;73.0
1;2020-10-20;75.0
1;2020-10-21;76.0
1;2020-10-22;70.0
1;2020-10-23;77.0
1;2020-10-24;76.0
1;2020-10-25;56.0
1;2020-10-26;66.0
1;2020-10-27;66.0
1;2020-10-28;70.0
1;2020-10-29;71.0
1;2020-10-30;78.0
1;2020-10-31;69.0
1;2020-11-01;56.0
1;2020-11-02;65.0
1;2020-11-03;72.0
1;2020-11-04;62.0
1;2020-11-05;66.0
1;2020-11-06;73.0
1;2020-11-07;63.0
1;2020-11-08;50.0
1;2020-11-09;62.0
1;2020-11-10;64.0
1;2020-11-11;74.0
1;2020-11-12;69.0
1;2020-11-13;81.0
1;2020-11-14;80.0
1;2020-11-15;65.0
1;2020-11-16;69.0
1;2020-11-17;67.0
1;2020-11-18;68.0
1;2020-11-19;64.0
1;2020-11-20;78.0
1;2020-11-21;71.0
1;2020-11-22;57.0
1;2020-11-23;62.0
1;2020-11-24;67.0
1;2020-11-25;72.0
1;2020-11-26;68.0
2;2019-12-01;67.0
2;2019-12-02;74.0
2;2019-12-03;77.0
2;2019-12-04;82.0
2;2019-12-05;84.0
2;2019-12-06;93.0
2;2019-12-07;79.0
2;2019-12-08;67.0
2;2019-12-09;79.0
2;2019-12-10;84.0
2;2019-12-11;83.0
2;2019-12-12;87.0
2;2019-12-13;93.0
2;2019-12-14;82.0
2;2019-12-15;69.0
2;2019-12-16;85.0
2;2019-12-17;84.0
2;2019-12-18;82.0
2;2019-12-19;84.0
2;2019-12-20;95.0
2;2019-12-21;83.0
2;2019-12-22;71.0
2;2019-12-23;82.0
2;2019-12-24;86.0
2;2019-12-25;90.0
2;2019-12-26;91.0
2;2019-12-27;90.0
2;2019-12-28;88.0
2;2019-12-29;83.0
2;2019-12-30;99.0
2;2019-12-31;83.0
2;2020-01-01;16.0
2;2020-01-02;50.0
2;2020-01-03;54.0
2;2020-01-04;57.0
2;2020-01-05;57.0
2;2020-01-06;61.0
2;2020-01-07;52.0
2;2020-01-08;53.0
2;2020-01-09;68.0
2;2020-01-10;75.0
2;2020-01-11;64.0
2;2020-01-12;56.0
2;2020-01-13;72.0
2;2020-01-14;70.0
2;2020-01-15;75.0
2;2020-01-16;74.0
2;2020-01-17;83.0
2;2020-01-18;72.0
2;2020-01-19;57.0
2;2020-01-20;71.0
2;2020-01-21;71.0
2;2020-01-22;74.0
2;2020-01-23;71.0
2;2020-01-24;83.0
2;2020-01-25;71.0
2;2020-01-26;59.0
2;2020-01-27;71.0
2;2020-01-28;70.0
2;2020-01-29;72.0
2;2020-01-30;72.0
2;2020-01-31;82.0
2;2020-02-01;72.0
2;2020-02-02;56.0
2;2020-02-03;71.0
2;2020-02-04;75.0
2;2020-02-05;78.0
2;2020-02-06;79.0
2;2020-02-07;82.0
2;2020-02-08;72.0
2;2020-02-09;62.0
2;2020-02-10;78.0
2;2020-02-11;77.0
2;2020-02-12;80.0
2;2020-02-13;82.0
2;2020-02-14;92.0
2;2020-02-15;79.0
2;2020-02-16;63.0
2;2020-02-17;77.0
2;2020-02-18;78.0
2;2020-02-19;77.0
2;2020-02-20;85.0
2;2020-02-21;92.0
2;2020-02-22;81.0
2;2020-02-23;61.0
2;2020-02-24;60.0
2;2020-02-25;75.0
2;2020-02-26;75.0
2;2020-02-27;77.0
2;2020-02-28;86.0
2;2020-02-29;75.0
2;2020-03-01;64.0
2;2020-03-02;74.0
2;2020-03-03;77.0
2;2020-03-04;83.0
2;2020-03-05;89.0
2;2020-03-06;95.0
2;2020-03-07;90.0
2;2020-03-08;70.0
2;2020-03-09;67.0
2;2020-03-10;78.0
2;2020-03-11;81.0
2;2020-03-12;82.0
2;2020-03-13;85.0
2;2020-03-14;80.0
2;2020-03-15;61.0
2;2020-03-16;82.0
2;2020-03-17;84.0
2;2020-03-18;78.0
2;2020-03-19;72.0
2;2020-03-20;76.0
2;2020-03-21;61.0
2;2020-03-22;51.0
2;2020-03-23;60.0
2;2020-03-24;60.0
2;2020-03-25;67.0
2;2020-03-26;67.0
2;2020-03-27;74.0
2;2020-03-28;48.0
2;2020-03-29;37.0
2;2020-03-30;27.0
2;2020-03-31;22.0
2;2020-04-01;24.0
2;2020-04-02;24.0
2;2020-04-03;30.0
2;2020-04-04;27.0
2;2020-04-05;19.0
2;2020-04-06;27.0
2;2020-04-07;32.0
2;2020-04-08;29.0
2;2020-04-09;34.0
2;2020-04-10;36.0
2;2020-04-11;33.0
2;2020-04-12;31.0
2;2020-04-13;27.0
2;2020-04-14;29.0
2;2020-04-15;27.0
2;2020-04-16;27.0
2;2020-04-17;35.0
2;2020-04-18;32.0
2;2020-04-19;17.0
2;2020-04-20;27.0
2;2020-04-21;31.0
2;2020-04-22;28.0
2;2020-04-23;33.0
2;2020-04-24;35.0
2;2020-04-25;29.0
2;2020-04-26;27.0
2;2020-04-27;29.0
2;2020-04-28;35.0
2;2020-04-29;38.0
2;2020-04-30;45.0
2;2020-05-01;37.0
2;2020-05-02;31.0
2;2020-05-03;30.0
2;2020-05-04;30.0
2;2020-05-05;33.0
2;2020-05-06;34.0
2;2020-05-07;36.0
2;2020-05-08;42.0
2;2020-05-09;30.0
2;2020-05-10;30.0
2;2020-05-11;39.0
2;2020-05-12;34.0
2;2020-05-13;37.0
2;2020-05-14;40.0
2;2020-05-15;46.0
2;2020-05-16;38.0
2;2020-05-17;31.0
2;2020-05-18;36.0
2;2020-05-19;41.0
2;2020-05-20;41.0
2;2020-05-21;39.0
2;2020-05-22;45.0
2;2020-05-23;40.0
2;2020-05-24;33.0
2;2020-05-25;42.0
2;2020-05-26;44.0
2;2020-05-27;45.0
2;2020-05-28;51.0
2;2020-05-29;42.0
2;2020-05-30;48.0
2;2020-05-31;31.0
2;2020-06-01;48.0
2;2020-06-02;48.0
2;2020-06-03;52.0
2;2020-06-04;54.0
2;2020-06-05;60.0
2;2020-06-06;59.0
2;2020-06-07;52.0
2;2020-06-08;60.0
2;2020-06-09;64.0
2;2020-06-10;63.0
2;2020-06-11;75.0
2;2020-06-12;62.0
2;2020-06-13;52.0
2;2020-06-14;56.0
2;2020-06-15;67.0
2;2020-06-16;68.0
2;2020-06-17;70.0
2;2020-06-18;67.0
2;2020-06-19;74.0
2;2020-06-20;63.0
2;2020-06-21;55.0
2;2020-06-22;67.0
2;2020-06-23;71.0
2;2020-06-24;67.0
2;2020-06-25;69.0
2;2020-06-26;79.0
2;2020-06-27;67.0
2;2020-06-28;59.0
2;2020-06-29;71.0
2;2020-06-30;74.0
2;2020-07-01;72.0
2;2020-07-02;70.0
2;2020-07-03;81.0
2;2020-07-04;74.0
2;2020-07-05;66.0
2;2020-07-06;77.0
2;2020-07-07;74.0
2;2020-07-08;74.0
2;2020-07-09;78.0
2;2020-07-10;84.0
2;2020-07-11;71.0
2;2020-07-12;64.0
2;2020-07-13;71.0
2;2020-07-14;66.0
2;2020-07-15;74.0
2;2020-07-16;74.0
2;2020-07-17;79.0
2;2020-07-18;65.0
2;2020-07-19;62.0
2;2020-07-20;71.0
2;2020-07-21;71.0
2;2020-07-22;73.0
2;2020-07-23;73.0
2;2020-07-24;78.0
2;2020-07-25;69.0
2;2020-07-26;61.0
2;2020-07-27;66.0
2;2020-07-28;74.0
2;2020-07-29;73.0
2;2020-07-30;74.0
2;2020-07-31;77.0
2;2020-08-01;65.0
2;2020-08-02;61.0
2;2020-08-03;71.0
2;2020-08-04;75.0
2;2020-08-05;78.0
2;2020-08-06;82.0
2;2020-08-07;84.0
2;2020-08-08;72.0
2;2020-08-09;65.0
2;2020-08-10;73.0
2;2020-08-11;76.0
2;2020-08-12;72.0
2;2020-08-13;71.0
2;2020-08-14;79.0
2;2020-08-15;71.0
2;2020-08-16;63.0
2;2020-08-17;74.0
2;2020-08-18;74.0
2;2020-08-19;73.0
2;2020-08-20;75.0
2;2020-08-21;82.0
2;2020-08-22;69.0
2;2020-08-23;65.0
2;2020-08-24;74.0
2;2020-08-25;76.0
2;2020-08-26;73.0
2;2020-08-27;77.0
2;2020-08-28;82.0
2;2020-08-29;73.0
2;2020-08-30;68.0
2;2020-08-31;82.0
2;2020-09-01;81.0
2;2020-09-02;80.0
2;2020-09-03;84.0
2;2020-09-04;90.0
2;2020-09-05;77.0
2;2020-09-06;71.0
2;2020-09-07;80.0
2;2020-09-08;70.0
2;2020-09-09;75.0
2;2020-09-10;77.0
2;2020-09-11;87.0
2;2020-09-12;75.0
2;2020-09-13;63.0
2;2020-09-14;75.0
2;2020-09-15;78.0
2;2020-09-16;78.0
2;2020-09-17;69.0
2;2020-09-18;85.0
2;2020-09-19;75.0
2;2020-09-20;65.0
2;2020-09-21;74.0
2;2020-09-22;77.0
2;2020-09-23;80.0
2;2020-09-24;79.0
2;2020-09-25;86.0
2;2020-09-26;76.0
2;2020-09-27;63.0
2;2020-09-28;70.0
2;2020-09-29;74.0
2;2020-09-30;79.0
2;2020-10-01;79.0
2;2020-10-02;86.0
2;2020-10-03;77.0
2;2020-10-04;68.0
2;2020-10-05;77.0
2;2020-10-06;79.0
2;2020-10-07;79.0
2;2020-10-08;76.0
2;2020-10-09;79.0
2;2020-10-10;75.0
2;2020-10-11;66.0
2;2020-10-12;68.0
2;2020-10-13;73.0
2;2020-10-14;74.0
2;2020-10-15;77.0
2;2020-10-16;78.0
2;2020-10-17;71.0
2;2020-10-18;55.0
2;2020-10-19;66.0
2;2020-10-20;69.0
2;2020-10-21;70.0
2;2020-10-22;68.0
2;2020-10-23;78.0
2;2020-10-24;70.0
2;2020-10-25;61.0
2;2020-10-26;67.0
2;2020-10-27;70.0
2;2020-10-28;72.0
2;2020-10-29;70.0
2;2020-10-30;76.0
2;2020-10-31;69.0
2;2020-11-01;58.0
2;2020-11-02;68.0
2;2020-11-03;76.0
2;2020-11-04;64.0
2;2020-11-05;71.0
2;2020-11-06;79.0
2;2020-11-07;70.0
2;2020-11-08;56.0
2;2020-11-09;66.0
2;2020-11-10;68.0
2;2020-11-11;74.0
2;2020-11-12;72.0
2;2020-11-13;80.0
2;2020-11-14;68.0
2;2020-11-15;60.0
2;2020-11-16;63.0
2;2020-11-17;66.0
2;2020-11-18;66.0
2;2020-11-19;61.0
2;2020-11-20;74.0
2;2020-11-21;68.0
2;2020-11-22;57.0
2;2020-11-23;61.0
2;2020-11-24;64.0
2;2020-11-25;67.0
2;2020-11-26;68.0
3;2019-12-01;60.5
3;2019-12-02;66.5
3;2019-12-03;65.5
3;2019-12-04;66.0
3;2019-12-05;69.0
3;2019-12-06;76.0
3;2019-12-07;71.5
3;2019-12-08;61.0
3;2019-12-09;65.5
3;2019-12-10;72.5
3;2019-12-11;75.5
3;2019-12-12;75.0
3;2019-12-13;82.0
3;2019-12-14;79.0
3;2019-12-15;71.0
3;2019-12-16;72.0
3;2019-12-17;73.0
3;2019-12-18;73.5
3;2019-12-19;76.0
3;2019-12-20;82.0
3;2019-12-21;78.0
3;2019-12-22;69.0
3;2019-12-23;72.5
3;2019-12-24;77.0
3;2019-12-25;83.0
3;2019-12-26;85.5
3;2019-12-27;84.0
3;2019-12-28;90.0
3;2019-12-29;83.5
3;2019-12-30;97.0
3;2019-12-31;83.5
3;2020-01-01;14.5
3;2020-01-02;41.0
3;2020-01-03;49.5
3;2020-01-04;53.5
3;2020-01-05;54.5
3;2020-01-06;59.0
3;2020-01-07;47.5
3;2020-01-08;52.0
3;2020-01-09;55.5
3;2020-01-10;64.5
3;2020-01-11;62.0
3;2020-01-12;49.0
3;2020-01-13;63.0
3;2020-01-14;60.0
3;2020-01-15;70.5
3;2020-01-16;64.5
3;2020-01-17;73.0
3;2020-01-18;67.5
3;2020-01-19;55.0
3;2020-01-20;65.0
3;2020-01-21;65.0
3;2020-01-22;65.0
3;2020-01-23;60.5
3;2020-01-24;73.0
3;2020-01-25;69.0
3;2020-01-26;55.0
3;2020-01-27;63.5
3;2020-01-28;66.0
3;2020-01-29;66.5
3;2020-01-30;64.5
3;2020-01-31;70.5
3;2020-02-01;69.0
3;2020-02-02;58.0
3;2020-02-03;63.5
3;2020-02-04;64.0
3;2020-02-05;70.5
3;2020-02-06;71.0
3;2020-02-07;74.5
3;2020-02-08;66.0
3;2020-02-09;56.0
3;2020-02-10;69.0
3;2020-02-11;71.0
3;2020-02-12;70.5
3;2020-02-13;71.0
3;2020-02-14;85.0
3;2020-02-15;79.5
3;2020-02-16;65.0
3;2020-02-17;68.5
3;2020-02-18;72.0
3;2020-02-19;72.5
3;2020-02-20;75.5
3;2020-02-21;81.5
3;2020-02-22;78.5
3;2020-02-23;63.0
3;2020-02-24;56.5
3;2020-02-25;65.0
3;2020-02-26;71.5
3;2020-02-27;76.0
3;2020-02-28;79.5
3;2020-02-29;75.5
3;2020-03-01;61.0
3;2020-03-02;70.0
3;2020-03-03;75.5
3;2020-03-04;78.5
3;2020-03-05;84.0
3;2020-03-06;85.5
3;2020-03-07;88.0
3;2020-03-08;69.5
3;2020-03-09;65.0
3;2020-03-10;74.0
3;2020-03-11;77.0
3;2020-03-12;76.0
3;2020-03-13;85.5
3;2020-03-14;79.5
3;2020-03-15;68.5
3;2020-03-16;74.5
3;2020-03-17;74.5
3;2020-03-18;68.5
3;2020-03-19;70.0
3;2020-03-20;75.0
3;2020-03-21;67.5
3;2020-03-22;56.0
3;2020-03-23;61.5
3;2020-03-24;60.0
3;2020-03-25;69.0
3;2020-03-26;68.5
3;2020-03-27;79.0
3;2020-03-28;55.5
3;2020-03-29;42.0
3;2020-03-30;46.0
3;2020-03-31;49.5
3;2020-04-01;37.0
3;2020-04-02;38.5
3;2020-04-03;54.0
3;2020-04-04;43.5
3;2020-04-05;38.5
3;2020-04-06;47.0
3;2020-04-07;48.0
3;2020-04-08;49.0
3;2020-04-09;50.5
3;2020-04-10;60.0
3;2020-04-11;53.5
3;2020-04-12;47.5
3;2020-04-13;54.0
3;2020-04-14;56.0
3;2020-04-15;60.5
3;2020-04-16;59.0
3;2020-04-17;75.5
3;2020-04-18;57.0
3;2020-04-19;34.5
3;2020-04-20;47.0
3;2020-04-21;52.5
3;2020-04-22;54.0
3;2020-04-23;57.0
3;2020-04-24;64.0
3;2020-04-25;59.5
3;2020-04-26;51.5
3;2020-04-27;54.5
3;2020-04-28;53.0
3;2020-04-29;60.0
3;2020-04-30;71.5
3;2020-05-01;63.0
3;2020-05-02;56.5
3;2020-05-03;51.0
3;2020-05-04;55.0
3;2020-05-05;56.5
3;2020-05-06;58.0
3;2020-05-07;64.5
3;2020-05-08;75.5
3;2020-05-09;58.0
3;2020-05-10;55.5
3;2020-05-11;61.0
3;2020-05-12;65.5
3;2020-05-13;65.5
3;2020-05-14;68.5
3;2020-05-15;80.5
3;2020-05-16;68.5
3;2020-05-17;62.5
3;2020-05-18;64.0
3;2020-05-19;66.0
3;2020-05-20;71.0
3;2020-05-21;67.5
3;2020-05-22;67.0
3;2020-05-23;66.0
3;2020-05-24;59.0
3;2020-05-25;56.5
3;2020-05-26;69.5
3;2020-05-27;68.5
3;2020-05-28;69.5
3;2020-05-29;74.5
3;2020-05-30;74.5
3;2020-05-31;63.5
3;2020-06-01;73.5
3;2020-06-02;74.5
3;2020-06-03;72.0
3;2020-06-04;69.0
3;2020-06-05;84.5
3;2020-06-06;80.5
3;2020-06-07;70.0
3;2020-06-08;74.0
3;2020-06-09;76.0
3;2020-06-10;81.0
3;2020-06-11;85.0
3;2020-06-12;76.5
3;2020-06-13;73.5
3;2020-06-14;67.0
3;2020-06-15;81.5
3;2020-06-16;80.5
3;2020-06-17;73.0
3;2020-06-18;77.5
3;2020-06-19;80.0
3;2020-06-20;77.5
3;2020-06-21;66.5
3;2020-06-22;73.5
3;2020-06-23;81.5
3;2020-06-24;72.0
3;2020-06-25;80.5
3;2020-06-26;84.5
3;2020-06-27;79.0
3;2020-06-28;67.5
3;2020-06-29;77.0
3;2020-06-30;82.5
3;2020-07-01;89.5
3;2020-07-02;89.0
3;2020-07-03;94.0
3;2020-07-04;87.0
3;2020-07-05;75.0
3;2020-07-06;82.5
3;2020-07-07;85.0
3;2020-07-08;83.5
3;2020-07-09;81.0
3;2020-07-10;90.0
3;2020-07-11;85.0
3;2020-07-12;74.5
3;2020-07-13;77.0
3;2020-07-14;80.5
3;2020-07-15;89.0
3;2020-07-16;85.0
3;2020-07-17;83.5
3;2020-07-18;78.5
3;2020-07-19;72.5
3;2020-07-20;82.0
3;2020-07-21;73.0
3;2020-07-22;81.0
3;2020-07-23;80.5
3;2020-07-24;89.5
3;2020-07-25;81.5
3;2020-07-26;70.5
3;2020-07-27;74.0
3;2020-07-28;70.5
3;2020-07-29;81.5
3;2020-07-30;84.5
3;2020-07-31;84.5
3;2020-08-01;72.0
3;2020-08-02;70.5
3;2020-08-03;73.5
3;2020-08-04;76.0
3;2020-08-05;79.5
3;2020-08-06;79.5
3;2020-08-07;87.5
3;2020-08-08;80.5
3;2020-08-09;72.5
3;2020-08-10;80.5
3;2020-08-11;84.5
3;2020-08-12;82.5
3;2020-08-13;79.5
3;2020-08-14;89.0
3;2020-08-15;84.5
3;2020-08-16;72.5
3;2020-08-17;79.0
3;2020-08-18;78.5
3;2020-08-19;81.0
3;2020-08-20;83.5
3;2020-08-21;80.5
3;2020-08-22;81.5
3;2020-08-23;72.0
3;2020-08-24;80.0
3;2020-08-25;82.0
3;2020-08-26;84.0
3;2020-08-27;82.0
3;2020-08-28;88.0
3;2020-08-29;81.0
3;2020-08-30;74.0
3;2020-08-31;86.5
3;2020-09-01;86.5
3;2020-09-02;87.5
3;2020-09-03;84.5
3;2020-09-04;90.0
3;2020-09-05;83.5
3;2020-09-06;68.5
3;2020-09-07;81.0
3;2020-09-08;81.5
3;2020-09-09;82.0
3;2020-09-10;86.5
3;2020-09-11;91.5
3;2020-09-12;86.0
3;2020-09-13;73.5
3;2020-09-14;81.0
3;2020-09-15;91.5
3;2020-09-16;87.0
3;2020-09-17;84.5
3;2020-09-18;92.0
3;2020-09-19;81.0
3;2020-09-20;74.0
3;2020-09-21;83.5
3;2020-09-22;81.5
3;2020-09-23;82.0
3;2020-09-24;83.5
3;2020-09-25;93.5
3;2020-09-26;84.0
3;2020-09-27;73.0
3;2020-09-28;79.0
3;2020-09-29;83.0
3;2020-09-30;83.5
3;2020-10-01;85.0
3;2020-10-02;91.0
3;2020-10-03;86.5
3;2020-10-04;72.5
3;2020-10-05;79.0
3;2020-10-06;80.5
3;2020-10-07;82.5
3;2020-10-08;86.0
3;2020-10-09;92.0
3;2020-10-10;87.0
3;2020-10-11;75.0
3;2020-10-12;83.5
3;2020-10-13;85.0
3;2020-10-14;88.0
3;2020-10-15;93.5
3;2020-10-16;95.5
3;2020-10-17;84.0
3;2020-10-18;75.0
3;2020-10-19;71.5
3;2020-10-20;82.5
3;2020-10-21;82.5
3;2020-10-22;83.5
3;2020-10-23;93.5
3;2020-10-24;88.0
3;2020-10-25;75.5
3;2020-10-26;80.0
3;2020-10-27;78.5
3;2020-10-28;81.0
3;2020-10-29;84.5
3;2020-10-30;93.0
3;2020-10-31;83.0
3;2020-11-01;74.0
3;2020-11-02;78.0
3;2020-11-03;83.0
3;2020-11-04;72.5
3;2020-11-05;80.0
3;2020-11-06;82.5
3;2020-11-07;76.0
3;2020-11-08;68.0
3;2020-11-09;72.0
3;2020-11-10;75.5
3;2020-11-11;86.5
3;2020-11-12;80.5
3;2020-11-13;88.0
3;2020-11-14;82.5
3;2020-11-15;75.5
3;2020-11-16;73.5
3;2020-11-17;76.0
3;2020-11-18;75.0
3;2020-11-19;71.0
3;2020-11-20;81.0
3;2020-11-21;77.5
3;2020-11-22;60.5
3;2020-11-23;71.0
3;2020-11-24;72.5
3;2020-11-25;78.0
3;2020-11-26;74.5
4;2019-12-01;60.666666666666664
4;2019-12-02;69.66666666666667
4;2019-12-03;69.33333333333333
4;2019-12-04;72.33333333333333
4;2019-12-05;74.0
4;2019-12-06;86.0
4;2019-12-07;74.66666666666667
4;2019-12-08;62.333333333333336
4;2019-12-09;71.0
4;2019-12-10;76.66666666666667
4;2019-12-11;77.66666666666667
4;2019-12-12;78.0
4;2019-12-13;88.0
4;2019-12-14;79.33333333333333
4;2019-12-15;68.0
4;2019-12-16;75.33333333333333
4;2019-12-17;78.0
4;2019-12-18;80.0
4;2019-12-19;81.0
4;2019-12-20;89.0
4;2019-12-21;83.0
4;2019-12-22;69.0
4;2019-12-23;77.66666666666667
4;2019-12-24;80.66666666666667
4;2019-12-25;83.0
4;2019-12-26;88.66666666666667
4;2019-12-27;88.66666666666667
4;2019-12-28;89.66666666666667
4;2019-12-29;81.0
4;2019-12-30;99.33333333333333
4;2019-12-31;88.33333333333333
4;2020-01-01;13.666666666666666
4;2020-01-02;38.333333333333336
4;2020-01-03;48.333333333333336
4;2020-01-04;53.0
4;2020-01-05;51.0
4;2020-01-06;58.333333333333336
4;2020-01-07;45.666666666666664
4;2020-01-08;49.666666666666664
4;2020-01-09;59.666666666666664
4;2020-01-10;66.0
4;2020-01-11;60.333333333333336
4;2020-01-12;50.0
4;2020-01-13;67.33333333333333
4;2020-01-14;64.0
4;2020-01-15;69.66666666666667
4;2020-01-16;69.33333333333333
4;2020-01-17;71.33333333333333
4;2020-01-18;70.0
4;2020-01-19;54.666666666666664
4;2020-01-20;66.33333333333333
4;2020-01-21;68.66666666666667
4;2020-01-22;70.66666666666667
4;2020-01-23;69.66666666666667
4;2020-01-24;80.33333333333333
4;2020-01-25;73.66666666666667
4;2020-01-26;59.0
4;2020-01-27;69.0
4;2020-01-28;69.66666666666667
4;2020-01-29;68.0
4;2020-01-30;71.66666666666667
4;2020-01-31;78.66666666666667
4;2020-02-01;70.33333333333333
4;2020-02-02;56.333333333333336
4;2020-02-03;65.33333333333333
4;2020-02-04;66.33333333333333
4;2020-02-05;69.0
4;2020-02-06;72.33333333333333
4;2020-02-07;80.33333333333333
4;2020-02-08;71.33333333333333
4;2020-02-09;57.333333333333336
4;2020-02-10;72.0
4;2020-02-11;74.66666666666667
4;2020-02-12;74.33333333333333
4;2020-02-13;79.66666666666667
4;2020-02-14;91.66666666666667
4;2020-02-15;79.33333333333333
4;2020-02-16;65.33333333333333
4;2020-02-17;74.66666666666667
4;2020-02-18;75.66666666666667
4;2020-02-19;74.66666666666667
4;2020-02-20;79.66666666666667
4;2020-02-21;89.0
4;2020-02-22;83.33333333333333
4;2020-02-23;69.66666666666667
4;2020-02-24;58.666666666666664
4;2020-02-25;71.0
4;2020-02-26;74.66666666666667
4;2020-02-27;76.66666666666667
4;2020-02-28;81.66666666666667
4;2020-02-29;75.0
4;2020-03-01;63.0
4;2020-03-02;73.33333333333333
4;2020-03-03;76.33333333333333
4;2020-03-04;78.33333333333333
4;2020-03-05;83.0
4;2020-03-06;93.33333333333333
4;2020-03-07;90.66666666666667
4;2020-03-08;69.66666666666667
4;2020-03-09;61.0
4;2020-03-10;75.33333333333333
4;2020-03-11;74.33333333333333
4;2020-03-12;77.0
4;2020-03-13;86.0
4;2020-03-14;78.66666666666667
4;2020-03-15;65.0
4;2020-03-16;75.66666666666667
4;2020-03-17;78.33333333333333
4;2020-03-18;75.0
4;2020-03-19;74.0
4;2020-03-20;83.0
4;2020-03-21;73.66666666666667
4;2020-03-22;58.666666666666664
4;2020-03-23;69.0
4;2020-03-24;66.0
4;2020-03-25;66.0
4;2020-03-26;71.33333333333333
4;2020-03-27;81.33333333333333
4;2020-03-28;65.33333333333333
4;2020-03-29;48.0
4;2020-03-30;51.333333333333336
4;2020-03-31;49.666666666666664
4;2020-04-01;37.0
4;2020-04-02;37.0
4;2020-04-03;42.666666666666664
4;2020-04-04;36.666666666666664
4;2020-04-05;32.333333333333336
4;2020-04-06;42.333333333333336
4;2020-04-07;45.0
4;2020-04-08;45.333333333333336
4;2020-04-09;49.0
4;2020-04-10;60.0
4;2020-04-11;52.333333333333336
4;2020-04-12;48.333333333333336
4;2020-04-13;54.333333333333336
4;2020-04-14;56.0
4;2020-04-15;57.0
4;2020-04-16;57.666666666666664
4;2020-04-17;66.0
4;2020-04-18;66.0
4;2020-04-19;39.333333333333336
4;2020-04-20;46.333333333333336
4;2020-04-21;54.333333333333336
4;2020-04-22;56.0
4;2020-04-23;57.333333333333336
4;2020-04-24;64.33333333333333
4;2020-04-25;57.666666666666664
4;2020-04-26;49.666666666666664
4;2020-04-27;56.333333333333336
4;2020-04-28;56.666666666666664
4;2020-04-29;59.666666666666664
4;2020-04-30;68.0
4;2020-05-01;57.0
4;2020-05-02;52.0
4;2020-05-03;47.666666666666664
4;2020-05-04;49.333333333333336
4;2020-05-05;49.666666666666664
4;2020-05-06;53.333333333333336
4;2020-05-07;57.333333333333336
4;2020-05-08;71.33333333333333
4;2020-05-09;54.333333333333336
4;2020-05-10;48.0
4;2020-05-11;56.0
4;2020-05-12;63.0
4;2020-05-13;62.333333333333336
4;2020-05-14;66.33333333333333
4;2020-05-15;73.0
4;2020-05-16;63.333333333333336
4;2020-05-17;56.0
4;2020-05-18;65.0
4;2020-05-19;64.33333333333333
4;2020-05-20;65.33333333333333
4;2020-05-21;66.0
4;2020-05-22;71.0
4;2020-05-23;67.0
4;2020-05-24;56.333333333333336
4;2020-05-25;63.666666666666664
4;2020-05-26;69.33333333333333
4;2020-05-27;67.66666666666667
4;2020-05-28;70.0
4;2020-05-29;70.66666666666667
4;2020-05-30;61.666666666666664
4;2020-05-31;54.0
4;2020-06-01;72.0
4;2020-06-02;67.0
4;2020-06-03;70.33333333333333
4;2020-06-04;71.0
4;2020-06-05;82.0
4;2020-06-06;70.66666666666667
4;2020-06-07;59.333333333333336
4;2020-06-08;73.66666666666667
4;2020-06-09;73.66666666666667
4;2020-06-10;75.0
4;2020-06-11;84.66666666666667
4;2020-06-12;72.66666666666667
4;2020-06-13;63.0
4;2020-06-14;59.666666666666664
4;2020-06-15;75.0
4;2020-06-16;76.33333333333333
4;2020-06-17;74.66666666666667
4;2020-06-18;74.33333333333333
4;2020-06-19;77.66666666666667
4;2020-06-20;70.33333333333333
4;2020-06-21;62.0
4;2020-06-22;72.66666666666667
4;2020-06-23;77.0
4;2020-06-24;70.0
4;2020-06-25;78.0
4;2020-06-26;83.66666666666667
4;2020-06-27;68.0
4;2020-06-28;60.333333333333336
4;2020-06-29;73.33333333333333
4;2020-06-30;78.33333333333333
4;2020-07-01;83.33333333333333
4;2020-07-02;83.66666666666667
4;2020-07-03;88.66666666666667
4;2020-07-04;72.66666666666667
4;2020-07-05;64.0
4;2020-07-06;76.66666666666667
4;2020-07-07;77.66666666666667
4;2020-07-08;78.33333333333333
4;2020-07-09;79.0
4;2020-07-10;85.0
4;2020-07-11;75.0
4;2020-07-12;61.666666666666664
4;2020-07-13;78.0
4;2020-07-14;75.33333333333333
4;2020-07-15;81.0
4;2020-07-16;81.33333333333333
4;2020-07-17;82.66666666666667
4;2020-07-18;71.33333333333333
4;2020-07-19;62.333333333333336
4;2020-07-20;76.66666666666667
4;2020-07-21;74.0
4;2020-07-22;77.66666666666667
4;2020-07-23;78.33333333333333
4;2020-07-24;83.0
4;2020-07-25;70.66666666666667
4;2020-07-26;58.666666666666664
4;2020-07-27;72.66666666666667
4;2020-07-28;70.66666666666667
4;2020-07-29;74.33333333333333
4;2020-07-30;76.0
4;2020-07-31;78.33333333333333
4;2020-08-01;68.0
4;2020-08-02;60.0
4;2020-08-03;73.33333333333333
4;2020-08-04;72.33333333333333
4;2020-08-05;74.66666666666667
4;2020-08-06;76.33333333333333
4;2020-08-07;82.66666666666667
4;2020-08-08;69.66666666666667
4;2020-08-09;64.0
4;2020-08-10;76.66666666666667
4;2020-08-11;78.33333333333333
4;2020-08-12;78.33333333333333
4;2020-08-13;76.66666666666667
4;2020-08-14;85.66666666666667
4;2020-08-15;75.66666666666667
4;2020-08-16;67.0
4;2020-08-17;77.66666666666667
4;2020-08-18;76.33333333333333
4;2020-08-19;77.66666666666667
4;2020-08-20;79.0
4;2020-08-21;85.0
4;2020-08-22;72.0
4;2020-08-23;66.66666666666667
4;2020-08-24;74.66666666666667
4;2020-08-25;79.66666666666667
4;2020-08-26;80.66666666666667
4;2020-08-27;77.0
4;2020-08-28;83.33333333333333
4;2020-08-29;77.33333333333333
4;2020-08-30;70.0
4;2020-08-31;84.66666666666667
4;2020-09-01;84.66666666666667
4;2020-09-02;82.66666666666667
4;2020-09-03;81.0
4;2020-09-04;88.33333333333333
4;2020-09-05;73.33333333333333
4;2020-09-06;62.666666666666664
4;2020-09-07;76.66666666666667
4;2020-09-08;78.66666666666667
4;2020-09-09;81.33333333333333
4;2020-09-10;81.66666666666667
4;2020-09-11;86.66666666666667
4;2020-09-12;78.33333333333333
4;2020-09-13;66.0
4;2020-09-14;79.33333333333333
4;2020-09-15;81.66666666666667
4;2020-09-16;83.0
4;2020-09-17;81.66666666666667
4;2020-09-18;89.33333333333333
4;2020-09-19;77.0
4;2020-09-20;66.0
4;2020-09-21;80.0
4;2020-09-22;80.0
4;2020-09-23;79.33333333333333
4;2020-09-24;82.0
4;2020-09-25;87.66666666666667
4;2020-09-26;79.0
4;2020-09-27;67.0
4;2020-09-28;78.0
4;2020-09-29;77.0
4;2020-09-30;80.33333333333333
4;2020-10-01;79.33333333333333
4;2020-10-02;85.66666666666667
4;2020-10-03;78.0
4;2020-10-04;65.33333333333333
4;2020-10-05;76.33333333333333
4;2020-10-06;76.33333333333333
4;2020-10-07;78.66666666666667
4;2020-10-08;80.0
4;2020-10-09;87.0
4;2020-10-10;78.33333333333333
4;2020-10-11;64.33333333333333
4;2020-10-12;75.33333333333333
4;2020-10-13;79.66666666666667
4;2020-10-14;79.66666666666667
4;2020-10-15;81.66666666666667
4;2020-10-16;88.33333333333333
4;2020-10-17;80.0
4;2020-10-18;64.33333333333333
4;2020-10-19;72.66666666666667
4;2020-10-20;75.66666666666667
4;2020-10-21;77.0
4;2020-10-22;76.66666666666667
4;2020-10-23;85.0
4;2020-10-24;77.33333333333333
4;2020-10-25;64.33333333333333
4;2020-10-26;73.0
4;2020-10-27;74.33333333333333
4;2020-10-28;72.66666666666667
4;2020-10-29;73.33333333333333
4;2020-10-30;79.66666666666667
4;2020-10-31;74.33333333333333
4;2020-11-01;59.0
4;2020-11-02;68.66666666666667
4;2020-11-03;75.0
4;2020-11-04;65.66666666666667
4;2020-11-05;69.66666666666667
4;2020-11-06;74.33333333333333
4;2020-11-07;67.66666666666667
4;2020-11-08;57.666666666666664
4;2020-11-09;64.0
4;2020-11-10;66.0
4;2020-11-11;74.0
4;2020-11-12;73.33333333333333
4;2020-11-13;78.66666666666667
4;2020-11-14;72.33333333333333
4;2020-11-15;60.666666666666664
4;2020-11-16;67.0
4;2020-11-17;68.0
4;2020-11-18;66.0
4;2020-11-19;65.66666666666667
4;2020-11-20;74.0
4;2020-11-21;70.33333333333333
4;2020-11-22;56.0
4;2020-11-23;68.66666666666667
4;2020-11-24;69.0
4;2020-11-25;71.33333333333333
4;2020-11-26;72.0
5;2019-12-01;62.0
5;2019-12-02;62.5
5;2019-12-03;65.0
5;2019-12-04;65.5
5;2019-12-05;66.5
5;2019-12-06;75.0
5;2019-12-07;74.0
5;2019-12-08;56.0
5;2019-12-09;62.5
5;2019-12-10;69.5
5;2019-12-11;72.0
5;2019-12-12;71.5
5;2019-12-13;81.5
5;2019-12-14;75.5
5;2019-12-15;65.5
5;2019-12-16;70.0
5;2019-12-17;72.5
5;2019-12-18;71.0
5;2019-12-19;72.5
5;2019-12-20;79.5
5;2019-12-21;76.0
5;2019-12-22;63.0
5;2019-12-23;68.5
5;2019-12-24;73.5
5;2019-12-25;77.0
5;2019-12-26;78.0
5;2019-12-27;80.5
5;2019-12-28;88.5
5;2019-12-29;80.5
5;2019-12-30;96.0
5;2019-12-31;92.0
5;2020-01-01;13.5
5;2020-01-02;40.5
5;2020-01-03;53.5
5;2020-01-04;56.0
5;2020-01-05;55.5
5;2020-01-06;60.0
5;2020-01-07;47.0
5;2020-01-08;50.0
5;2020-01-09;56.0
5;2020-01-10;65.5
5;2020-01-11;61.5
5;2020-01-12;49.5
5;2020-01-13;61.0
5;2020-01-14;60.0
5;2020-01-15;65.0
5;2020-01-16;66.5
5;2020-01-17;74.0
5;2020-01-18;68.0
5;2020-01-19;52.5
5;2020-01-20;61.0
5;2020-01-21;64.0
5;2020-01-22;68.0
5;2020-01-23;68.0
5;2020-01-24;78.5
5;2020-01-25;73.0
5;2020-01-26;56.0
5;2020-01-27;63.0
5;2020-01-28;64.0
5;2020-01-29;62.0
5;2020-01-30;67.5
5;2020-01-31;75.5
5;2020-02-01;68.0
5;2020-02-02;55.5
5;2020-02-03;62.0
5;2020-02-04;63.0
5;2020-02-05;66.5
5;2020-02-06;68.5
5;2020-02-07;75.0
5;2020-02-08;69.5
5;2020-02-09;52.5
5;2020-02-10;62.5
5;2020-02-11;67.0
5;2020-02-12;69.0
5;2020-02-13;69.5
5;2020-02-14;86.0
5;2020-02-15;78.0
5;2020-02-16;61.5
5;2020-02-17;66.0
5;2020-02-18;66.0
5;2020-02-19;70.0
5;2020-02-20;74.0
5;2020-02-21;80.0
5;2020-02-22;81.0
5;2020-02-23;66.0
5;2020-02-24;54.5
5;2020-02-25;66.5
5;2020-02-26;67.0
5;2020-02-27;69.0
5;2020-02-28;76.5
5;2020-02-29;76.0
5;2020-03-01;61.5
5;2020-03-02;64.0
5;2020-03-03;68.5
5;2020-03-04;70.0
5;2020-03-05;74.0
5;2020-03-06;83.5
5;2020-03-07;84.0
5;2020-03-08;69.5
5;2020-03-09;55.5
5;2020-03-10;65.0
5;2020-03-11;67.5
5;2020-03-12;67.0
5;2020-03-13;83.5
5;2020-03-14;79.5
5;2020-03-15;64.0
5;2020-03-16;72.5
5;2020-03-17;73.5
5;2020-03-18;74.0
5;2020-03-19;68.5
5;2020-03-20;75.0
5;2020-03-21;67.0
5;2020-03-22;51.5
5;2020-03-23;62.0
5;2020-03-24;65.5
5;2020-03-25;68.5
5;2020-03-26;69.5
5;2020-03-27;79.0
5;2020-03-28;61.0
5;2020-03-29;43.0
5;2020-03-30;43.0
5;2020-03-31;44.0
5;2020-04-01;55.5
5;2020-04-02;26.0
5;2020-04-03;32.0
5;2020-04-04;29.5
5;2020-04-05;24.5
5;2020-04-06;32.0
5;2020-04-07;34.0
5;2020-04-08;35.5
5;2020-04-09;39.5
5;2020-04-10;47.5
5;2020-04-11;44.5
5;2020-04-12;34.5
5;2020-04-13;43.0
5;2020-04-14;46.0
5;2020-04-15;49.5
5;2020-04-16;50.0
5;2020-04-17;59.0
5;2020-04-18;56.0
5;2020-04-19;29.5
5;2020-04-20;40.5
5;2020-04-21;43.0
5;2020-04-22;47.0
5;2020-04-23;45.0
5;2020-04-24;55.0
5;2020-04-25;46.5
5;2020-04-26;39.5
5;2020-04-27;48.5
5;2020-04-28;49.5
5;2020-04-29;50.5
5;2020-04-30;61.5
5;2020-05-01;40.5
5;2020-05-02;43.5
5;2020-05-03;41.5
5;2020-05-04;46.5
5;2020-05-05;44.5
5;2020-05-06;51.5
5;2020-05-07;56.0
5;2020-05-08;69.0
5;2020-05-09;42.0
5;2020-05-10;44.0
5;2020-05-11;50.0
5;2020-05-12;54.5
5;2020-05-13;60.0
5;2020-05-14;60.5
5;2020-05-15;71.0
5;2020-05-16;58.5
5;2020-05-17;53.5
5;2020-05-18;61.0
5;2020-05-19;63.0
5;2020-05-20;66.5
5;2020-05-21;64.0
5;2020-05-22;74.5
5;2020-05-23;66.0
5;2020-05-24;52.5
5;2020-05-25;57.5
5;2020-05-26;65.0
5;2020-05-27;66.0
5;2020-05-28;68.5
5;2020-05-29;74.5
5;2020-05-30;62.0
5;2020-05-31;49.5
5;2020-06-01;63.5
5;2020-06-02;71.5
5;2020-06-03;69.5
5;2020-06-04;73.5
5;2020-06-05;81.0
5;2020-06-06;70.0
5;2020-06-07;56.0
5;2020-06-08;72.5
5;2020-06-09;71.5
5;2020-06-10;75.5
5;2020-06-11;80.5
5;2020-06-12;61.0
5;2020-06-13;60.5
5;2020-06-14;55.5
5;2020-06-15;75.5
5;2020-06-16;74.0
5;2020-06-17;71.0
5;2020-06-18;68.5
5;2020-06-19;77.5
5;2020-06-20;65.0
5;2020-06-21;55.0
5;2020-06-22;66.5
5;2020-06-23;73.5
5;2020-06-24;69.5
5;2020-06-25;75.0
5;2020-06-26;76.5
5;2020-06-27;63.0
5;2020-06-28;58.5
5;2020-06-29;67.5
5;2020-06-30;73.0
5;2020-07-01;75.5
5;2020-07-02;77.5
5;2020-07-03;79.0
5;2020-07-04;72.0
5;2020-07-05;63.0
5;2020-07-06;77.0
5;2020-07-07;78.5
5;2020-07-08;78.5
5;2020-07-09;76.5
5;2020-07-10;85.5
5;2020-07-11;71.5
5;2020-07-12;63.5
5;2020-07-13;73.5
5;2020-07-14;74.5
5;2020-07-15;80.0
5;2020-07-16;79.0
5;2020-07-17;83.0
5;2020-07-18;65.5
5;2020-07-19;56.5
5;2020-07-20;71.5
5;2020-07-21;75.0
5;2020-07-22;74.5
5;2020-07-23;78.0
5;2020-07-24;82.5
5;2020-07-25;72.0
5;2020-07-26;62.0
5;2020-07-27;74.0
5;2020-07-28;75.0
5;2020-07-29;73.0
5;2020-07-30;76.0
5;2020-07-31;76.5
5;2020-08-01;70.5
5;2020-08-02;60.5
5;2020-08-03;74.0
5;2020-08-04;70.5
5;2020-08-05;76.0
5;2020-08-06;76.0
5;2020-08-07;82.5
5;2020-08-08;69.0
5;2020-08-09;57.5
5;2020-08-10;71.0
5;2020-08-11;75.0
5;2020-08-12;74.5
5;2020-08-13;72.5
5;2020-08-14;81.5
5;2020-08-15;67.5
5;2020-08-16;59.5
5;2020-08-17;70.5
5;2020-08-18;70.5
5;2020-08-19;73.5
5;2020-08-20;73.0
5;2020-08-21;81.0
5;2020-08-22;70.5
5;2020-08-23;60.5
5;2020-08-24;73.5
5;2020-08-25;76.0
5;2020-08-26;77.5
5;2020-08-27;79.5
5;2020-08-28;85.0
5;2020-08-29;73.0
5;2020-08-30;65.0
5;2020-08-31;79.0
5;2020-09-01;77.0
5;2020-09-02;75.5
5;2020-09-03;76.5
5;2020-09-04;83.0
5;2020-09-05;70.0
5;2020-09-06;62.0
5;2020-09-07;75.0
5;2020-09-08;78.0
5;2020-09-09;76.0
5;2020-09-10;77.0
5;2020-09-11;83.0
5;2020-09-12;73.5
5;2020-09-13;64.5
5;2020-09-14;72.0
5;2020-09-15;77.0
5;2020-09-16;78.0
5;2020-09-17;75.5
5;2020-09-18;84.0
5;2020-09-19;74.5
5;2020-09-20;57.0
5;2020-09-21;76.0
5;2020-09-22;74.5
5;2020-09-23;79.5
5;2020-09-24;80.0
5;2020-09-25;88.5
5;2020-09-26;80.5
5;2020-09-27;64.5
5;2020-09-28;74.5
5;2020-09-29;77.5
5;2020-09-30;79.0
5;2020-10-01;81.0
5;2020-10-02;85.0
5;2020-10-03;75.5
5;2020-10-04;61.5
5;2020-10-05;71.0
5;2020-10-06;69.5
5;2020-10-07;72.5
5;2020-10-08;75.5
5;2020-10-09;84.0
5;2020-10-10;76.0
5;2020-10-11;63.0
5;2020-10-12;71.5
5;2020-10-13;72.5
5;2020-10-14;74.5
5;2020-10-15;77.5
5;2020-10-16;80.0
5;2020-10-17;75.5
5;2020-10-18;59.0
5;2020-10-19;67.0
5;2020-10-20;71.0
5;2020-10-21;72.0
5;2020-10-22;73.0
5;2020-10-23;85.0
5;2020-10-24;76.5
5;2020-10-25;64.0
5;2020-10-26;70.5
5;2020-10-27;67.0
5;2020-10-28;68.5
5;2020-10-29;66.5
5;2020-10-30;77.5
5;2020-10-31;66.0
5;2020-11-01;57.0
5;2020-11-02;66.5
5;2020-11-03;74.5
5;2020-11-04;56.0
5;2020-11-05;65.0
5;2020-11-06;70.5
5;2020-11-07;64.0
5;2020-11-08;51.5
5;2020-11-09;62.0
5;2020-11-10;65.0
5;2020-11-11;70.0
5;2020-11-12;67.0
5;2020-11-13;76.0
5;2020-11-14;71.5
5;2020-11-15;57.5
5;2020-11-16;64.0
5;2020-11-17;65.0
5;2020-11-18;63.5
5;2020-11-19;66.0
5;2020-11-20;72.5
5;2020-11-21;68.0
5;2020-11-22;54.0
5;2020-11-23;64.5
5;2020-11-24;65.0
5;2020-11-25;70.5
5;2020-11-26;67.5
6;2019-12-01;71.0
6;2019-12-02;79.0
6;2019-12-03;80.0
6;2019-12-04;79.0
6;2019-12-05;81.0
6;2019-12-06;87.0
6;2019-12-07;77.0
6;2019-12-08;63.0
6;2019-12-09;78.0
6;2019-12-10;82.0
6;2019-12-11;85.0
6;2019-12-12;86.0
6;2019-12-13;90.0
6;2019-12-14;84.0
6;2019-12-15;74.0
6;2019-12-16;83.0
6;2019-12-17;83.0
6;2019-12-18;82.0
6;2019-12-19;89.0
6;2019-12-20;97.0
6;2019-12-21;88.0
6;2019-12-22;78.0
6;2019-12-23;86.0
6;2019-12-24;92.0
6;2019-12-25;94.0
6;2019-12-26;96.0
6;2019-12-27;92.0
6;2019-12-28;97.0
6;2019-12-29;86.0
6;2019-12-30;100.0
6;2019-12-31;85.0
6;2020-01-01;15.0
6;2020-01-02;50.0
6;2020-01-03;58.0
6;2020-01-04;59.0
6;2020-01-05;61.0
6;2020-01-06;61.0
6;2020-01-07;52.0
6;2020-01-08;52.0
6;2020-01-09;68.0
6;2020-01-10;75.0
6;2020-01-11;70.0
6;2020-01-12;53.0
6;2020-01-13;74.0
6;2020-01-14;72.0
6;2020-01-15;75.0
6;2020-01-16;78.0
6;2020-01-17;85.0
6;2020-01-18;79.0
6;2020-01-19;65.0
6;2020-01-20;75.0
6;2020-01-21;78.0
6;2020-01-22;78.0
6;2020-01-23;78.0
6;2020-01-24;86.0
6;2020-01-25;79.0
6;2020-01-26;64.0
6;2020-01-27;78.0
6;2020-01-28;77.0
6;2020-01-29;77.0
6;2020-01-30;77.0
6;2020-01-31;84.0
6;2020-02-01;74.0
6;2020-02-02;63.0
6;2020-02-03;71.0
6;2020-02-04;73.0
6;2020-02-05;74.0
6;2020-02-06;73.0
6;2020-02-07;82.0
6;2020-02-08;76.0
6;2020-02-09;63.0
6;2020-02-10;75.0
6;2020-02-11;81.0
6;2020-02-12;80.0
6;2020-02-13;82.0
6;2020-02-14;96.0
6;2020-02-15;83.0
6;2020-02-16;68.0
6;2020-02-17;76.0
6;2020-02-18;79.0
6;2020-02-19;83.0
6;2020-02-20;88.0
6;2020-02-21;96.0
6;2020-02-22;83.0
6;2020-02-23;70.0
6;2020-02-24;65.0
6;2020-02-25;81.0
6;2020-02-26;81.0
6;2020-02-27;82.0
6;2020-02-28;88.0
6;2020-02-29;85.0
6;2020-03-01;66.0
6;2020-03-02;78.0
6;2020-03-03;82.0
6;2020-03-04;82.0
6;2020-03-05;85.0
6;2020-03-06;93.0
6;2020-03-07;86.0
6;2020-03-08;80.0
6;2020-03-09;69.0
6;2020-03-10;81.0
6;2020-03-11;80.0
6;2020-03-12;81.0
6;2020-03-13;88.0
6;2020-03-14;81.0
6;2020-03-15;73.0
6;2020-03-16;77.0
6;2020-03-17;82.0
6;2020-03-18;77.0
6;2020-03-19;81.0
6;2020-03-20;83.0
6;2020-03-21;73.0
6;2020-03-22;59.0
6;2020-03-23;71.0
6;2020-03-24;72.0
6;2020-03-25;75.0
6;2020-03-26;73.0
6;2020-03-27;84.0
6;2020-03-28;47.0
6;2020-03-29;34.0
6;2020-03-30;37.0
6;2020-03-31;31.0
6;2020-04-01;27.0
6;2020-04-02;25.0
6;2020-04-03;30.0
6;2020-04-04;29.0
6;2020-04-05;25.0
6;2020-04-06;31.0
6;2020-04-07;36.0
6;2020-04-08;36.0
6;2020-04-09;38.0
6;2020-04-10;48.0
6;2020-04-11;40.0
6;2020-04-12;30.0
6;2020-04-13;40.0
6;2020-04-14;39.0
6;2020-04-15;44.0
6;2020-04-16;42.0
6;2020-04-17;52.0
6;2020-04-18;43.0
6;2020-04-19;29.0
6;2020-04-20;38.0
6;2020-04-21;44.0
6;2020-04-22;44.0
6;2020-04-23;44.0
6;2020-04-24;50.0
6;2020-04-25;43.0
6;2020-04-26;35.0
6;2020-04-27;42.0
6;2020-04-28;46.0
6;2020-04-29;45.0
6;2020-04-30;57.0
6;2020-05-01;50.0
6;2020-05-02;43.0
6;2020-05-03;34.0
6;2020-05-04;42.0
6;2020-05-05;42.0
6;2020-05-06;47.0
6;2020-05-07;46.0
6;2020-05-08;57.0
6;2020-05-09;44.0
6;2020-05-10;41.0
6;2020-05-11;44.0
6;2020-05-12;44.0
6;2020-05-13;51.0
6;2020-05-14;48.0
6;2020-05-15;57.0
6;2020-05-16;49.0
6;2020-05-17;42.0
6;2020-05-18;46.0
6;2020-05-19;52.0
6;2020-05-20;54.0
6;2020-05-21;53.0
6;2020-05-22;66.0
6;2020-05-23;55.0
6;2020-05-24;50.0
6;2020-05-25;58.0
6;2020-05-26;64.0
6;2020-05-27;64.0
6;2020-05-28;60.0
6;2020-05-29;68.0
6;2020-05-30;56.0
6;2020-05-31;46.0
6;2020-06-01;61.0
6;2020-06-02;64.0
6;2020-06-03;63.0
6;2020-06-04;53.0
6;2020-06-05;67.0
6;2020-06-06;56.0
6;2020-06-07;55.0
6;2020-06-08;66.0
6;2020-06-09;62.0
6;2020-06-10;69.0
6;2020-06-11;71.0
6;2020-06-12;62.0
6;2020-06-13;55.0
6;2020-06-14;57.0
6;2020-06-15;70.0
6;2020-06-16;67.0
6;2020-06-17;73.0
6;2020-06-18;68.0
6;2020-06-19;83.0
6;2020-06-20;63.0
6;2020-06-21;59.0
6;2020-06-22;69.0
6;2020-06-23;79.0
6;2020-06-24;69.0
6;2020-06-25;80.0
6;2020-06-26;84.0
6;2020-06-27;65.0
6;2020-06-28;60.0
6;2020-06-29;75.0
6;2020-06-30;73.0
6;2020-07-01;73.0
6;2020-07-02;78.0
6;2020-07-03;83.0
6;2020-07-04;66.0
6;2020-07-05;54.0
6;2020-07-06;71.0
6;2020-07-07;71.0
6;2020-07-08;74.0
6;2020-07-09;74.0
6;2020-07-10;79.0
6;2020-07-11;66.0
6;2020-07-12;63.0
6;2020-07-13;76.0
6;2020-07-14;75.0
6;2020-07-15;79.0
6;2020-07-16;78.0
6;2020-07-17;84.0
6;2020-07-18;71.0
6;2020-07-19;62.0
6;2020-07-20;77.0
6;2020-07-21;77.0
6;2020-07-22;73.0
6;2020-07-23;78.0
6;2020-07-24;84.0
6;2020-07-25;67.0
6;2020-07-26;70.0
6;2020-07-27;80.0
6;2020-07-28;70.0
6;2020-07-29;78.0
6;2020-07-30;79.0
6;2020-07-31;79.0
6;2020-08-01;74.0
6;2020-08-02;69.0
6;2020-08-03;73.0
6;2020-08-04;73.0
6;2020-08-05;79.0
6;2020-08-06;77.0
6;2020-08-07;84.0
6;2020-08-08;70.0
6;2020-08-09;65.0
6;2020-08-10;80.0
6;2020-08-11;76.0
6;2020-08-12;79.0
6;2020-08-13;77.0
6;2020-08-14;83.0
6;2020-08-15;74.0
6;2020-08-16;68.0
6;2020-08-17;76.0
6;2020-08-18;80.0
6;2020-08-19;76.0
6;2020-08-20;82.0
6;2020-08-21;88.0
6;2020-08-22;74.0
6;2020-08-23;64.0
6;2020-08-24;79.0
6;2020-08-25;82.0
6;2020-08-26;84.0
6;2020-08-27;73.0
6;2020-08-28;86.0
6;2020-08-29;75.0
6;2020-08-30;67.0
6;2020-08-31;85.0
6;2020-09-01;87.0
6;2020-09-02;83.0
6;2020-09-03;86.0
6;2020-09-04;88.0
6;2020-09-05;79.0
6;2020-09-06;67.0
6;2020-09-07;77.0
6;2020-09-08;81.0
6;2020-09-09;79.0
6;2020-09-10;74.0
6;2020-09-11;91.0
6;2020-09-12;75.0
6;2020-09-13;68.0
6;2020-09-14;81.0
6;2020-09-15;84.0
6;2020-09-16;80.0
6;2020-09-17;78.0
6;2020-09-18;86.0
6;2020-09-19;83.0
6;2020-09-20;71.0
6;2020-09-21;81.0
6;2020-09-22;82.0
6;2020-09-23;87.0
6;2020-09-24;90.0
6;2020-09-25;96.0
6;2020-09-26;83.0
6;2020-09-27;74.0
6;2020-09-28;82.0
6;2020-09-29;81.0
6;2020-09-30;87.0
6;2020-10-01;87.0
6;2020-10-02;91.0
6;2020-10-03;79.0
6;2020-10-04;63.0
6;2020-10-05;83.0
6;2020-10-06;79.0
6;2020-10-07;83.0
6;2020-10-08;83.0
6;2020-10-09;92.0
6;2020-10-10;83.0
6;2020-10-11;70.0
6;2020-10-12;76.0
6;2020-10-13;79.0
6;2020-10-14;84.0
6;2020-10-15;84.0
6;2020-10-16;89.0
6;2020-10-17;80.0
6;2020-10-18;61.0
6;2020-10-19;74.0
6;2020-10-20;84.0
6;2020-10-21;83.0
6;2020-10-22;76.0
6;2020-10-23;91.0
6;2020-10-24;83.0
6;2020-10-25;71.0
6;2020-10-26;83.0
6;2020-10-27;75.0
6;2020-10-28;70.0
6;2020-10-29;72.0
6;2020-10-30;77.0
6;2020-10-31;67.0
6;2020-11-01;59.0
6;2020-11-02;64.0
6;2020-11-03;69.0
6;2020-11-04;62.0
6;2020-11-05;63.0
6;2020-11-06;73.0
6;2020-11-07;69.0
6;2020-11-08;56.0
6;2020-11-09;61.0
6;2020-11-10;67.0
6;2020-11-11;74.0
6;2020-11-12;71.0
6;2020-11-13;78.0
6;2020-11-14;68.0
6;2020-11-15;59.0
6;2020-11-16;62.0
6;2020-11-17;63.0
6;2020-11-18;64.0
6;2020-11-19;64.0
6;2020-11-20;76.0
6;2020-11-21;69.0
6;2020-11-22;55.0
6;2020-11-23;68.0
6;2020-11-24;67.0
6;2020-11-25;68.0
6;2020-11-26;68.0
